QBR Examples • espnscrapeR
…
top_16_per_yr <- nfl_qbr_season %>% 
  filter(qb_plays >= 100) %>% 
  select(season, team_abb, name_short, qbr_total) %>% 
  # group by season
  group_by(season) %>% 
  # get top 16
  slice_max(order_by = qbr_total, n = 16) %>% 
  # add the grouped median
  mutate(qbr_median = median(qbr_total)) %>% 
  ungroup()

top_16_per_yr
#> # A tibble: 242 × 5
#>    season team_abb name_short qbr_total qbr_median
#>     <dbl> <chr>    <chr>          <dbl>      <dbl>
#>  1   2006 IND      P. Manning      86.4       66.4
#>  2   2006 NE       T. Brady        83         66.4
#>  3   2006 IND      P. Manning      71.9       66.4
#>  4   2006 NE       T. Brady        68.6       66.4
#>  5   2006 SD       P. Rivers       67.4       66.4
#>  6   2006 CIN      C. Palmer       67.1       66.4
#>  7   2006 PHI      J. Garcia       67.1       66.4
#>  8   2006 NO       D. Brees        66.7       66.4
#>  9   2006 BAL      S. McNair       66         66.4
#> 10   2006 TB       T. Rattay       65.2       66.4
#> # … with 232 more rows
…
Alternatively you can also find the median by quarterback.

nfl_qbr_season %>%
  filter(qb_plays >= 100) %>% 
  group_by(name_short) %>% 
  summarize(
    median = median(qbr_total), 
    years = range(season) %>% paste0(collapse = "-"),
    active = if_else(max(season) == 2020, "Active", "Retired"),
    .groups = "drop"
    ) %>% 
  arrange(desc(median))
#> # A tibble: 135 × 4
#>    name_short  median years     active 
#>    <chr>        <dbl> <chr>     <chr>  
#>  1 P. Mahomes    80.6 2018-2020 Active 
#>  2 P. Manning    76.9 2006-2015 Retired
#>  3 T. Brady      73.9 2006-2020 Active 
#>  4 L. Jackson    73.7 2018-2020 Active 
#>  5 Q. Gray       73.6 2007-2007 Retired
#>  6 D. Prescott   71.9 2016-2020 Active 
#>  7 T. Collins    71.1 2007-2007 Retired
#>  8 D. Brees      70.8 2006-2020 Active 
#>  9 D. Watson     70.5 2017-2020 Active 
#> 10 A. Rodgers    69.6 2008-2020 Active 
#> # … with 125 more rows
…
