Get historical ELO ratings from FiveThirtyEight — get_538_elo_historical • espnscrapeR
…
    Arguments

      team
      character, team abbreviated name, must be one of "ari", "atl", "bal", "buf", "car", "chi", "cin", "dal", "den", "det", "gb", "hou", "ind", "jax", "kc", "oak", "lac", "lar", "mia", "min", "ne", "no", "nyg", "nyj", "phi", "pit", "sf", "sea", "tb", "ten", "wsh"

    Value

    Returns a tibble

    Examples

# Get historic elo for specific team
get_538_elo_historical(team = "pit")
#> # A tibble: 1,453 x 11
#>    team  espn_uid espn_abb  year   elo opp   pts_for pts_against week 
#>    <chr> <chr>    <chr>    <dbl> <dbl> <chr>   <dbl>       <int> <chr>
#>  1 pit   23       PIT      1933  1300  <NA>       NA          NA <NA> 
#>  2 pit   23       PIT      1933. 1283. nyg         2          23 Week…
#>  3 pit   23       PIT      1933. 1292. crd        14          13 Week…
#>  4 pit   23       PIT      1933. 1270. bos         6          21 Week…
#>  5 pit   23       PIT      1933. 1293. red        17           3 Week…
#>  6 pit   23       PIT      1933. 1285. gb          0          47 Week…
#>  7 pit   23       PIT      1933. 1286. red         0           0 Week…
#>  8 pit   23       PIT      1934. 1306. bos        16          14 Week…
#>  9 pit   23       PIT      1934. 1313. bkn         3           3 Week…
#> 10 pit   23       PIT      1934. 1280. bkn         0          32 Week…
#> # … with 1,443 more rows, and 2 more variables: date <date>, week_num <dbl>
…
