Return all NFL teams with their name, abbreviation, — get_nfl_teams • espnscrapeR
…
    Source: R/get_nfl_teams.R
    get_nfl_teams.Rd

    Return all NFL teams with their name, abbreviation,

get_nfl_teams()

    Value

    Examples

get_nfl_teams()
#> Getting NFL teams!
#> # A tibble: 32 x 8
#>    uid   name   nickname abbreviation full_name team_color alternate_color logo 
#>    <chr> <chr>  <chr>    <chr>        <chr>     <chr>      <chr>           <chr>
#>  1 22    Cardi… Arizona  ARI          Arizona … A40227     000000          http…
#>  2 1     Falco… Atlanta  ATL          Atlanta … 000000     000000          http…
#>  3 33    Ravens Baltimo… BAL          Baltimor… 2B025B     9e7c0c          http…
#>  4 2     Bills  Buffalo  BUF          Buffalo … 04407F     c60c30          http…
#>  5 29    Panth… Carolina CAR          Carolina… 2177B0     bfc0bf          http…
#>  6 3     Bears  Chicago  CHI          Chicago … 152644     0b162a          http…
#>  7 4     Benga… Cincinn… CIN          Cincinna… FF2700     000000          http…
#>  8 5     Browns Clevela… CLE          Clevelan… 4C230E     4c230e          http…
#>  9 6     Cowbo… Dallas   DAL          Dallas C… 002E4D     b0b7bc          http…
#> 10 7     Bronc… Denver   DEN          Denver B… 002E4D     fb4f14          http…
#> # … with 22 more rows
…
