Get NFL standings for a specific season from ESPN's API — get_nfl_standings • espnscrapeR
…
    Arguments

      season
      Either numeric or character

    Value

    Returns a tibble

    Examples

# Get standings from 2018 season
get_nfl_standings(season = "2018")
#> Returning 2018
#> # A tibble: 32 x 28
#>    conf  season team_id team_location team_name team_abb team_full team_logo
#>    <chr>  <int> <chr>   <chr>         <chr>     <chr>    <chr>     <chr>    
#>  1 AFC     2018 24      Los Angeles   Chargers  LAC      Los Ange… https://…
#>  2 AFC     2018 12      Kansas City   Chiefs    KC       Kansas C… https://…
#>  3 AFC     2018 34      Houston       Texans    HOU      Houston … https://…
#>  4 AFC     2018 17      New England   Patriots  NE       New Engl… https://…
#>  5 AFC     2018 33      Baltimore     Ravens    BAL      Baltimor… https://…
#>  6 AFC     2018 11      Indianapolis  Colts     IND      Indianap… https://…
#>  7 AFC     2018 23      Pittsburgh    Steelers  PIT      Pittsbur… https://…
#>  8 AFC     2018 10      Tennessee     Titans    TEN      Tennesse… https://…
#>  9 AFC     2018 5       Cleveland     Browns    CLE      Clevelan… https://…
#> 10 AFC     2018 15      Miami         Dolphins  MIA      Miami Do… https://…
#> # … with 22 more rows, and 20 more variables: seed <int>, wins <dbl>,
#> #   losses <dbl>, win_pct <dbl>, g_behind <dbl>, ties <dbl>, pts_for <dbl>,
#> #   pts_against <dbl>, pts_diff <dbl>, streak <dbl>, div_ties <dbl>,
#> #   record <chr>, home_wins <dbl>, home_losses <dbl>, away_wins <dbl>,
#> #   away_losses <dbl>, conf_wins <dbl>, conf_losses <dbl>, div_wins <dbl>,
#> #   div_losses <dbl>

# Get standings from 2010 season
get_nfl_standings(2010)
#> Returning 2010
#> # A tibble: 32 x 28
#>    conf  season team_id team_location team_name team_abb team_full team_logo
#>    <chr>  <int> <chr>   <chr>         <chr>     <chr>    <chr>     <chr>    
#>  1 AFC     2010 17      New England   Patriots  NE       New Engl… https://…
#>  2 AFC     2010 23      Pittsburgh    Steelers  PIT      Pittsbur… https://…
#>  3 AFC     2010 33      Baltimore     Ravens    BAL      Baltimor… https://…
#>  4 AFC     2010 20      New York      Jets      NYJ      New York… https://…
#>  5 AFC     2010 11      Indianapolis  Colts     IND      Indianap… https://…
#>  6 AFC     2010 12      Kansas City   Chiefs    KC       Kansas C… https://…
#>  7 AFC     2010 24      San Diego     Chargers  SD       San Dieg… https://…
#>  8 AFC     2010 30      Jacksonville  Jaguars   JAX      Jacksonv… https://…
#>  9 AFC     2010 13      Oakland       Raiders   OAK      Oakland … https://…
#> 10 AFC     2010 15      Miami         Dolphins  MIA      Miami Do… https://…
#> # … with 22 more rows, and 20 more variables: seed <int>, wins <dbl>,
#> #   losses <dbl>, win_pct <dbl>, g_behind <dbl>, ties <dbl>, pts_for <dbl>,
#> #   pts_against <dbl>, pts_diff <dbl>, streak <dbl>, div_ties <dbl>,
#> #   record <chr>, home_wins <dbl>, home_losses <dbl>, away_wins <dbl>,
#> #   away_losses <dbl>, conf_wins <dbl>, conf_losses <dbl>, div_wins <dbl>,
#> #   div_losses <dbl>
…
