Get ESPN QBR for NFL football — get_nfl_qbr • espnscrapeR
…
# Get Regular season QBR for week 4 of 2019
get_nfl_qbr("2019", season_type = "Regular", week = 4)
#> Scraping weekly QBR for week 4 of 2019!
#> # A tibble: 31 × 30
#>    season season…¹ game_id game_…² week_…³ team_…⁴ playe…⁵ name_…⁶  rank qbr_t…⁷
#>    <chr>  <chr>    <chr>     <int> <chr>   <chr>   <chr>   <chr>   <dbl>   <dbl>
#>  1 2019   Regular  401128…       4 Week 4  TB      2969939 J. Win…   1      90.1
#>  2 2019   Regular  401127…       4 Week 4  PHI     2573079 C. Wen…   2      87  
#>  3 2019   Regular  401128…       4 Week 4  PIT     3116407 M. Rud…   3      82.6
#>  4 2019   Regular  401128…       4 Week 4  LAC     5529    P. Riv…   4      78.5
#>  5 2019   Regular  401128…       4 Week 4  CHI     12471   C. Dan…   5      78.2
#>  6 2019   Regular  401128…       4 Week 4  DAL     2577417 D. Pre…   6      78  
#>  7 2019   Regular  401128…       4 Week 4  DET     12483   M. Sta…   7      75.2
#>  8 2019   Regular  401128…       4 Week 4  DEN     11252   J. Fla…   8      73.8
#>  9 2019   Regular  401127…       4 Week 4  GB      8439    A. Rod…   9.5    70.9
#> 10 2019   Regular  401128…       4 Week 4  CLE     3052587 B. May…   9.5    70.9
#> # … with 21 more rows, 20 more variables: pts_added <dbl>, qb_plays <dbl>,
#> #   epa_total <dbl>, pass <dbl>, run <dbl>, exp_sack <dbl>, penalty <dbl>,
#> #   qbr_raw <dbl>, sack <dbl>, name_first <chr>, name_last <chr>,
#> #   name_display <chr>, headshot_href <chr>, team <chr>, opp_id <chr>,
#> #   opp_abb <chr>, opp_team <chr>, opp_name <chr>, week_num <int>,
#> #   qualified <lgl>, and abbreviated variable names ¹​season_type, ²​game_week,
#> #   ³​week_text, ⁴​team_abb, ⁵​player_id, ⁶​name_short, ⁷​qbr_total
…
